Order-Id,Item-id,Product-Id,Quantity,Sales-Id,Customer-Id,Sales-Price-Per-Prod,Market-Segment
0,0,12,25,5,26,105,software
1,1,18,22,5,7,85,pharmaceutical
2,2,2,6,4,29,211,financial
3,3,15,14,9,23,179,pharmaceutical
4,4,1,23,9,6,159,software
5,5,12,26,5,8,103,realestate
6,6,13,26,9,16,86,retail
7,7,18,5,8,11,56,financial
8,8,9,13,2,12,77,retail
9,9,6,0,6,13,56,education
10,10,9,11,9,12,80,retail
11,11,7,28,6,20,140,financial
12,12,2,9,4,17,206,software
13,13,19,11,7,29,119,software
14,14,2,25,8,8,200,software
15,15,19,27,0,0,86,education
16,16,7,23,5,17,163,education
17,17,2,27,1,16,206,retail
18,18,16,13,4,6,149,retail
19,19,0,23,5,0,120,software
20,20,6,7,2,6,83,education
21,21,18,14,6,20,99,realestate
22,22,16,28,8,20,161,education
23,23,1,3,5,27,196,pharmaceutical
24,24,17,18,4,7,202,education
25,25,0,20,8,2,121,education
26,26,3,29,7,16,191,pharmaceutical
27,27,2,0,5,4,204,realestate
28,28,11,29,5,18,111,retail
29,29,14,16,3,22,179,realestate
30,30,15,3,0,11,218,software
31,31,2,17,0,14,208,pharmaceutical
32,32,15,20,8,4,204,financial
33,33,11,24,9,17,114,software
34,34,14,12,1,25,180,retail
35,35,15,12,1,29,214,pharmaceutical
36,36,2,8,4,21,219,pharmaceutical
37,37,5,4,2,20,111,software
38,38,9,15,7,9,75,financial
39,39,1,18,9,25,187,realestate
40,40,5,10,0,10,124,software
41,41,2,16,7,5,204,retail
42,42,7,20,8,24,143,realestate
43,43,11,0,4,14,115,realestate
44,44,13,19,6,10,131,retail
45,45,16,12,6,19,150,realestate
46,46,4,16,6,3,154,realestate
47,47,3,2,6,20,185,software
48,48,11,19,8,15,135,software
49,49,11,17,7,1,112,financial
50,50,17,3,3,4,192,retail
51,51,4,24,7,9,162,realestate
52,52,1,27,2,19,191,realestate
53,53,4,14,8,25,182,retail
54,54,3,19,9,22,172,education
55,55,14,17,5,13,191,software
56,56,15,20,4,2,194,realestate
57,57,9,21,3,23,89,software
58,58,8,29,6,6,207,realestate
59,59,14,6,6,11,189,pharmaceutical
60,60,7,11,2,2,156,realestate
61,61,0,27,5,17,120,education
62,62,10,14,5,21,126,financial
63,63,5,15,6,14,103,software
64,64,12,16,5,23,86,education
65,65,1,11,3,1,174,education
66,66,13,13,8,24,103,pharmaceutical
67,67,12,23,3,18,110,realestate
68,68,2,18,4,5,210,pharmaceutical
69,69,17,17,6,12,194,financial
70,70,1,29,2,1,234,software
71,71,9,2,0,11,87,software
72,72,7,2,6,7,144,realestate
73,73,8,0,4,2,167,financial
74,74,16,0,5,23,150,education
75,75,1,15,4,0,235,retail
76,76,14,20,9,20,181,financial
77,77,15,14,9,15,198,retail
78,78,6,7,5,24,59,financial
79,79,13,4,7,16,143,retail
80,80,13,18,1,13,90,financial
81,81,3,2,8,17,201,education
82,82,2,18,3,27,202,realestate
83,83,11,28,1,11,137,software
84,84,17,0,3,2,189,pharmaceutical
85,85,10,16,4,8,104,realestate
86,86,1,20,6,11,197,software
87,87,15,7,6,11,183,financial
88,88,2,28,2,23,203,realestate
89,89,6,16,4,5,84,financial
90,90,6,4,7,18,38,realestate
91,91,6,19,7,28,51,realestate
92,92,6,15,4,3,70,financial
93,93,19,20,8,3,87,retail
94,94,1,0,3,12,195,software
95,95,16,18,7,17,147,education
96,96,10,1,3,10,109,financial
97,97,5,21,1,26,127,software
98,98,9,25,2,28,94,education
99,99,9,17,1,13,102,financial
100,100,11,1,3,27,120,retail
101,101,2,5,3,6,200,retail
102,102,17,19,8,12,197,realestate
103,103,15,1,4,6,199,pharmaceutical
104,104,11,6,9,9,133,realestate
105,105,5,5,4,16,111,pharmaceutical
106,106,0,8,8,12,123,realestate
107,107,8,25,1,27,208,realestate
108,108,0,11,5,29,123,education
109,109,10,0,7,1,146,realestate
110,110,9,8,0,17,103,education
111,111,5,26,3,18,96,retail
112,112,0,14,1,1,123,pharmaceutical
113,113,3,27,1,5,194,pharmaceutical
114,114,6,19,5,22,83,realestate
115,115,8,26,9,9,125,realestate
116,116,11,23,9,8,121,financial
117,117,12,22,6,27,79,education
118,118,17,5,4,19,199,retail
119,119,14,15,8,12,186,financial
120,120,17,26,0,18,191,education
121,121,15,2,6,24,179,realestate
122,122,9,17,7,13,98,software
123,123,6,8,8,1,86,education
124,124,4,23,7,21,180,financial
125,125,10,21,3,10,96,education
126,126,19,20,3,23,77,financial
127,127,15,1,9,24,200,realestate
128,128,17,23,8,29,194,pharmaceutical
129,129,18,11,6,4,95,pharmaceutical
130,130,3,19,8,16,205,realestate
131,131,12,19,5,0,103,financial
132,132,4,8,5,27,156,pharmaceutical
133,133,10,21,2,4,125,retail
134,134,18,18,5,28,87,software
135,135,2,13,7,26,212,software
136,136,2,17,8,7,213,education
137,137,8,18,9,10,174,retail
138,138,3,24,8,25,166,financial
139,139,5,21,3,25,121,software
140,140,7,8,8,17,124,software
141,141,3,15,3,13,184,retail
142,142,10,8,0,12,110,education
143,143,16,16,6,1,148,software
144,144,17,23,2,9,194,realestate
145,145,7,24,5,24,167,software
146,146,3,28,5,18,188,pharmaceutical
147,147,16,11,8,13,150,software
148,148,16,13,9,22,160,retail
149,149,18,4,5,14,59,software
150,150,15,23,2,7,216,pharmaceutical
151,151,1,27,9,17,204,retail
152,152,17,13,8,21,195,pharmaceutical
153,153,17,13,5,23,183,education
154,154,4,16,8,11,149,retail
155,155,13,16,2,2,121,education
156,156,5,8,3,27,116,financial
157,157,10,18,3,28,119,software
158,158,8,20,2,9,187,education
159,159,18,2,2,6,78,software
160,160,14,16,8,14,194,education
161,161,1,20,7,3,177,software
162,162,11,2,6,10,101,pharmaceutical
163,163,2,9,3,23,212,education
164,164,17,0,7,14,197,pharmaceutical
165,165,11,25,9,7,126,realestate
166,166,7,28,8,2,137,retail
167,167,13,13,0,8,146,retail
168,168,12,1,9,10,102,education
169,169,10,26,7,21,119,retail
170,170,8,0,3,20,132,pharmaceutical
171,171,0,23,3,16,119,pharmaceutical
172,172,4,18,4,11,168,realestate
173,173,8,15,4,5,113,realestate
174,174,5,10,7,11,113,pharmaceutical
175,175,17,25,2,12,184,software
176,176,15,19,7,20,184,software
177,177,1,29,2,28,188,realestate
178,178,11,19,5,15,136,financial
179,179,15,8,8,23,206,retail
180,180,10,14,0,29,94,retail
181,181,12,5,2,27,101,education
182,182,12,7,5,13,110,realestate
183,183,19,15,0,22,90,financial
184,184,10,23,3,10,104,retail
185,185,19,29,4,28,91,retail
186,186,13,11,1,9,96,software
187,187,16,4,3,0,150,pharmaceutical
188,188,9,6,4,0,52,software
189,189,4,0,1,29,138,pharmaceutical
190,190,16,3,3,7,153,pharmaceutical
191,191,5,26,4,1,93,retail
192,192,13,15,2,28,119,realestate
193,193,5,18,1,8,116,software
194,194,1,9,4,26,230,pharmaceutical
195,195,18,26,4,17,78,financial
196,196,10,10,8,3,119,pharmaceutical
197,197,18,19,1,4,98,financial
198,198,0,24,7,14,119,software
199,199,6,6,3,7,62,financial
200,200,8,19,8,5,134,software
201,201,6,3,9,22,54,financial
202,202,0,27,2,12,121,financial
203,203,4,18,5,18,188,education
204,204,5,20,7,14,134,pharmaceutical
205,205,7,20,4,9,133,retail
206,206,16,11,0,26,148,realestate
207,207,7,21,0,27,164,software
208,208,8,16,6,28,193,education
209,209,16,2,5,28,147,retail
210,210,7,7,9,18,144,software
211,211,12,8,8,20,94,pharmaceutical
212,212,7,27,8,18,125,software
213,213,18,2,8,19,62,education
214,214,15,29,6,17,182,financial
215,215,4,3,1,3,144,pharmaceutical
216,216,2,29,2,29,203,software
217,217,14,2,8,6,192,financial
218,218,2,5,8,26,206,retail
219,219,19,23,1,5,85,retail
220,220,12,0,8,24,83,financial
221,221,2,6,3,28,209,education
222,222,3,24,5,28,174,financial
223,223,8,13,8,21,154,software
224,224,9,26,4,9,96,education
225,225,6,25,0,4,63,pharmaceutical
226,226,12,0,4,29,108,financial
227,227,6,12,4,20,77,pharmaceutical
228,228,7,25,2,19,142,retail
229,229,15,7,4,7,220,financial
230,230,6,9,3,0,38,retail
231,231,0,2,4,7,123,education
232,232,11,25,1,0,134,software
233,233,8,3,5,19,132,pharmaceutical
234,234,11,27,6,19,107,financial
235,235,14,28,7,5,191,retail
236,236,19,20,4,17,102,realestate
237,237,1,22,9,13,208,education
238,238,13,21,2,15,88,education
239,239,4,5,7,29,146,pharmaceutical
240,240,0,7,5,27,119,software
241,241,17,5,9,16,203,software
242,242,19,4,3,22,106,financial
243,243,4,8,0,26,175,realestate
244,244,5,17,1,15,136,retail
245,245,15,21,7,23,187,pharmaceutical
246,246,16,6,6,3,146,software
247,247,12,15,7,20,108,retail
248,248,16,8,3,1,146,financial
249,249,5,28,4,22,107,realestate
250,250,0,16,7,4,121,software
251,251,13,8,9,11,129,realestate
252,252,18,28,5,14,57,realestate
253,253,1,0,5,12,191,software
254,254,18,14,6,24,83,financial
255,255,8,22,0,11,118,financial
256,256,11,14,0,1,111,retail
257,257,9,20,0,22,72,software
258,258,13,11,2,21,136,financial
259,259,11,25,7,8,130,pharmaceutical
260,260,0,23,4,23,119,financial
261,261,14,4,6,13,191,retail
262,262,16,17,0,9,158,software
263,263,16,10,5,0,149,education
264,264,4,27,1,1,192,realestate
265,265,5,5,1,17,124,education
266,266,13,6,1,10,141,education
267,267,2,26,2,28,210,realestate
268,268,2,15,8,0,214,pharmaceutical
269,269,6,20,5,15,41,financial
270,270,7,10,8,1,155,retail
271,271,0,19,3,21,120,realestate
272,272,4,18,1,21,149,retail
273,273,10,2,2,25,98,pharmaceutical
274,274,14,24,3,12,189,software
275,275,11,4,2,20,101,retail
276,276,18,5,0,0,70,pharmaceutical
277,277,0,16,3,21,123,pharmaceutical
278,278,4,15,8,27,150,software
279,279,19,0,4,23,90,retail
280,280,14,13,8,3,187,pharmaceutical
281,281,4,5,0,28,179,retail
282,282,18,9,2,14,98,education
283,283,11,4,4,26,92,education
284,284,12,26,4,29,81,financial
285,285,13,14,5,17,109,software
286,286,1,5,8,6,160,financial
287,287,8,15,1,16,198,realestate
288,288,18,0,3,29,84,realestate
289,289,13,22,7,1,106,realestate
290,290,4,12,4,13,146,retail
291,291,13,4,3,12,109,software
292,292,1,27,7,3,166,pharmaceutical
293,293,11,5,7,8,118,education
294,294,18,27,6,12,83,financial
295,295,12,24,8,13,88,realestate
296,296,4,26,3,0,173,realestate
297,297,8,14,5,17,142,financial
298,298,14,29,9,8,190,pharmaceutical
299,299,19,5,6,22,95,financial
300,300,18,20,2,12,73,software
301,301,2,5,1,25,207,education
302,302,6,6,4,20,74,pharmaceutical
303,303,13,7,8,3,131,education
304,304,8,15,7,14,165,retail
305,305,2,2,9,15,216,financial
306,306,6,16,3,23,72,financial
307,307,4,21,2,21,184,financial
308,308,0,14,6,0,119,financial
309,309,14,18,0,8,193,retail
310,310,9,4,9,6,86,pharmaceutical
311,311,2,18,5,26,211,financial
312,312,8,11,3,10,192,retail
313,313,0,0,9,8,122,realestate
314,314,18,0,7,13,70,retail
315,315,5,11,4,8,134,pharmaceutical
316,316,16,9,7,1,161,software
317,317,10,19,7,25,125,pharmaceutical
318,318,2,3,2,6,209,pharmaceutical
319,319,0,6,4,4,122,pharmaceutical
320,320,15,23,8,21,180,retail
321,321,11,13,6,20,131,software
322,322,17,17,2,21,189,realestate
323,323,19,11,7,11,97,pharmaceutical
324,324,14,22,9,6,185,realestate
325,325,10,22,3,11,102,financial
326,326,16,24,0,13,151,realestate
327,327,9,7,6,29,100,realestate
328,328,6,0,7,12,44,retail
329,329,18,22,6,6,72,software
330,330,5,28,2,23,98,retail
331,331,2,4,0,4,219,financial
332,332,15,28,8,28,220,retail
333,333,13,25,1,24,131,software
334,334,3,22,7,17,172,education
335,335,4,23,7,11,153,realestate
336,336,7,11,7,3,122,retail
337,337,10,28,9,5,158,software
338,338,9,16,4,22,44,financial
339,339,0,25,5,7,122,retail
340,340,17,18,9,29,195,pharmaceutical
341,341,19,14,9,6,108,retail
342,342,13,2,8,6,119,pharmaceutical
343,343,7,22,3,10,135,pharmaceutical
344,344,19,2,9,24,107,software
345,345,4,3,0,11,131,software
346,346,6,9,6,24,59,retail
347,347,6,12,8,25,58,realestate
348,348,11,25,5,7,136,pharmaceutical
349,349,8,29,3,12,167,pharmaceutical
350,350,15,14,0,10,199,software
351,351,16,7,8,25,151,education
352,352,9,20,8,5,45,education
353,353,10,26,1,12,92,realestate
354,354,4,29,9,20,193,education
355,355,18,16,3,9,57,education
356,356,11,25,0,21,136,retail
357,357,6,0,5,4,71,software
358,358,11,22,6,5,126,pharmaceutical
359,359,8,7,3,8,197,software
360,360,11,4,5,15,106,education
361,361,9,17,9,24,83,pharmaceutical
362,362,15,17,6,4,213,retail
363,363,3,12,5,14,206,realestate
364,364,14,26,4,18,187,software
365,365,15,8,9,0,219,retail
366,366,17,26,3,21,197,pharmaceutical
367,367,2,24,4,22,208,pharmaceutical
368,368,9,21,5,17,68,education
369,369,13,4,4,13,131,retail
370,370,16,18,7,15,156,pharmaceutical
371,371,3,11,2,18,167,financial
372,372,0,28,2,3,123,financial
373,373,12,24,1,9,103,pharmaceutical
374,374,16,12,1,29,154,financial
375,375,4,13,0,5,152,pharmaceutical
376,376,19,17,5,21,116,financial
377,377,13,15,7,11,90,financial
378,378,7,13,1,22,153,pharmaceutical
379,379,15,19,2,1,178,realestate
380,380,17,5,9,18,201,financial
381,381,7,16,1,23,160,pharmaceutical
382,382,7,19,2,16,137,pharmaceutical
383,383,0,4,8,5,119,retail
384,384,5,3,6,26,120,realestate
385,385,14,16,4,3,181,financial
386,386,0,19,2,17,121,retail
387,387,13,8,8,6,136,pharmaceutical
388,388,5,13,9,8,104,financial
389,389,1,23,4,4,166,pharmaceutical
390,390,10,26,4,22,111,software
391,391,8,3,2,12,203,retail
392,392,18,17,0,1,54,pharmaceutical
393,393,4,5,7,0,187,software
394,394,4,29,7,21,187,pharmaceutical
395,395,9,0,8,17,74,education
396,396,5,23,5,3,127,education
397,397,16,11,4,28,151,realestate
398,398,4,16,3,17,152,software
399,399,14,13,6,7,183,software
400,400,3,3,2,22,195,software
401,401,16,16,3,13,146,education
402,402,18,14,0,13,71,financial
403,403,4,3,3,18,132,realestate
404,404,8,13,5,18,177,retail
405,405,17,2,3,13,201,education
406,406,16,11,3,9,160,pharmaceutical
407,407,0,11,1,0,122,retail
408,408,19,22,1,29,94,pharmaceutical
409,409,2,23,9,8,205,realestate
410,410,13,24,6,20,110,education
411,411,12,27,6,2,108,realestate
412,412,11,1,3,4,121,financial
413,413,18,3,6,22,90,software
414,414,6,4,5,22,80,education
415,415,16,17,2,8,150,retail
416,416,18,17,4,20,58,pharmaceutical
417,417,12,25,6,18,97,education
418,418,6,18,5,0,50,education
419,419,13,2,1,25,94,realestate
420,420,10,10,3,29,96,realestate
421,421,18,15,8,29,103,retail
422,422,5,27,5,27,94,software
423,423,13,17,4,10,146,financial
424,424,12,15,2,29,110,retail
425,425,9,8,2,12,62,financial
426,426,0,2,1,18,123,education
427,427,5,27,2,22,129,education
428,428,1,26,4,24,229,realestate
429,429,11,19,6,16,93,realestate
430,430,16,19,8,25,146,education
431,431,4,8,8,20,168,pharmaceutical
432,432,13,10,4,6,123,education
433,433,18,20,3,10,77,education
434,434,13,8,4,11,145,software
435,435,16,0,6,4,154,retail
436,436,11,6,5,29,123,education
437,437,6,26,5,18,77,financial
438,438,15,25,4,2,182,pharmaceutical
439,439,11,1,9,0,94,pharmaceutical
440,440,8,9,1,3,141,financial
441,441,4,1,7,25,189,software
442,442,15,2,5,23,207,education
443,443,16,18,9,24,148,education
444,444,11,23,8,8,136,pharmaceutical
445,445,7,17,8,29,124,software
446,446,13,27,3,15,123,realestate
447,447,5,2,5,24,116,software
448,448,1,6,6,15,185,retail
449,449,3,15,0,21,165,realestate
450,450,10,23,7,20,107,retail
451,451,18,10,3,14,97,retail
452,452,11,17,8,3,128,education
453,453,0,25,6,17,121,education
454,454,1,0,8,4,169,financial
455,455,15,3,9,15,193,financial
456,456,12,10,1,21,84,realestate
457,457,4,0,7,23,151,realestate
458,458,2,4,9,27,204,education
459,459,14,22,1,0,187,pharmaceutical
460,460,15,13,1,8,220,retail
461,461,2,6,3,21,215,financial
462,462,2,8,1,21,218,retail
463,463,4,23,0,23,177,financial
464,464,6,22,3,5,41,software
465,465,15,28,2,9,206,software
466,466,3,9,9,18,213,retail
467,467,19,12,3,26,72,software
468,468,12,10,7,27,94,retail
469,469,7,23,1,2,146,pharmaceutical
470,470,4,21,7,21,156,realestate
471,471,13,8,3,7,109,retail
472,472,5,1,6,16,99,financial
473,473,14,2,5,8,190,financial
474,474,15,27,0,15,217,financial
475,475,4,13,3,29,178,realestate
476,476,10,24,7,23,105,pharmaceutical
477,477,0,2,9,21,120,education
478,478,6,1,5,25,65,education
479,479,9,21,8,0,58,pharmaceutical
480,480,2,16,6,29,199,retail
481,481,0,5,1,25,121,financial
482,482,16,11,6,5,151,pharmaceutical
483,483,16,28,5,17,146,pharmaceutical
484,484,4,25,0,16,145,software
485,485,12,19,9,22,91,financial
486,486,0,1,6,24,120,pharmaceutical
487,487,11,3,6,10,116,education
488,488,7,1,7,9,160,financial
489,489,9,8,7,2,76,software
490,490,19,29,2,14,113,pharmaceutical
491,491,2,12,4,0,202,realestate
492,492,13,11,4,25,104,retail
493,493,19,16,9,5,75,retail
494,494,17,14,9,7,193,education
495,495,2,21,9,21,214,pharmaceutical
496,496,11,4,8,21,133,retail
497,497,16,12,1,23,160,retail
498,498,1,26,4,11,175,financial
499,499,12,22,2,15,101,education
500,500,7,8,7,13,163,financial
501,501,0,14,9,23,121,realestate
502,502,4,1,4,14,179,pharmaceutical
503,503,15,24,2,21,199,retail
504,504,18,0,5,21,93,retail
505,505,16,4,6,18,154,software
506,506,11,27,3,9,124,realestate
507,507,0,20,5,7,122,financial
508,508,9,2,4,19,96,retail
509,509,19,26,0,10,99,education
510,510,3,23,5,22,175,retail
511,511,14,4,2,21,181,education
512,512,8,16,8,13,157,financial
513,513,2,8,2,18,201,realestate
514,514,11,5,7,1,122,financial
515,515,10,19,3,24,102,education
516,516,5,17,0,0,122,education
517,517,2,2,0,14,203,retail
518,518,17,2,4,4,203,pharmaceutical
519,519,19,7,6,13,72,retail
520,520,9,18,8,28,48,retail
521,521,9,5,8,20,55,software
522,522,15,10,4,24,196,financial
523,523,11,14,3,13,121,education
524,524,8,17,4,0,110,education
525,525,0,11,7,23,119,pharmaceutical
526,526,1,15,0,21,187,education
527,527,2,7,4,7,205,retail
528,528,7,22,2,5,125,retail
529,529,13,1,5,5,107,education
530,530,15,17,9,16,200,realestate
531,531,16,2,2,10,149,education
532,532,15,0,7,9,183,retail
533,533,1,3,0,3,217,education
534,534,1,14,2,26,190,financial
535,535,15,23,5,13,179,software
536,536,13,25,8,2,92,software
537,537,7,1,3,1,165,financial
538,538,0,17,7,6,122,retail
539,539,19,27,0,27,75,pharmaceutical
540,540,14,0,1,11,198,software
541,541,2,10,1,9,210,pharmaceutical
542,542,16,24,6,17,147,software
543,543,7,7,5,5,132,pharmaceutical
544,544,15,18,7,7,208,financial
545,545,1,0,9,7,213,retail
546,546,4,10,2,10,174,education
547,547,16,23,8,3,151,realestate
548,548,7,8,1,29,143,software
549,549,19,21,5,21,101,realestate
550,550,17,7,2,22,198,financial
551,551,17,1,8,4,188,pharmaceutical
552,552,13,17,0,12,108,software
553,553,8,19,7,8,203,realestate
554,554,14,21,0,7,183,realestate
555,555,1,7,4,2,215,realestate
556,556,5,23,4,13,122,pharmaceutical
557,557,15,6,4,4,204,pharmaceutical
558,558,3,10,6,3,193,education
559,559,1,17,6,6,225,education
560,560,15,27,9,4,212,education
561,561,0,23,5,6,119,financial
562,562,17,20,5,10,205,realestate
563,563,11,5,3,12,97,software
564,564,14,23,8,6,182,retail
565,565,5,12,8,22,138,pharmaceutical
566,566,1,1,8,12,164,retail
567,567,11,25,1,24,91,financial
568,568,19,23,7,13,108,realestate
569,569,14,29,8,4,181,education
570,570,9,12,2,13,100,pharmaceutical
571,571,2,5,5,25,204,software
572,572,15,12,5,24,200,retail
573,573,2,11,8,2,203,pharmaceutical
574,574,16,28,4,17,149,education
575,575,12,28,6,20,78,software
576,576,16,7,1,13,160,financial
577,577,10,15,3,4,92,software
578,578,11,26,0,28,118,retail
579,579,4,12,2,3,177,education
580,580,12,9,2,17,105,realestate
581,581,1,21,2,5,156,financial
582,582,10,21,7,20,114,pharmaceutical
583,583,3,1,5,4,215,financial
584,584,3,2,5,21,165,software
585,585,1,20,9,12,179,software
586,586,0,28,7,16,120,retail
587,587,1,11,1,28,191,education
588,588,18,8,2,25,92,retail
589,589,13,4,5,6,94,software
590,590,5,2,0,27,98,financial
591,591,10,26,8,26,93,pharmaceutical
592,592,2,28,5,7,204,software
593,593,19,29,3,21,104,pharmaceutical
594,594,2,21,6,6,211,software
595,595,12,0,1,28,99,pharmaceutical
596,596,11,8,1,27,126,retail
597,597,2,12,3,14,200,education
598,598,8,0,7,21,118,retail
599,599,14,20,4,29,192,realestate
600,600,3,29,4,10,165,education
601,601,9,20,2,3,90,education
602,602,0,16,1,6,122,financial
603,603,8,2,5,23,176,pharmaceutical
604,604,6,25,9,13,55,financial
605,605,3,19,6,5,174,software
606,606,19,2,4,0,118,software
607,607,6,26,5,0,48,financial
608,608,3,28,2,24,194,education
609,609,8,16,1,28,199,software
610,610,12,27,3,8,100,financial
611,611,16,7,7,13,147,pharmaceutical
612,612,2,1,3,22,208,retail
613,613,1,19,9,28,173,pharmaceutical
614,614,2,28,9,21,200,pharmaceutical
615,615,7,11,8,22,139,software
616,616,0,29,6,12,119,education
617,617,16,19,2,22,157,financial
618,618,4,4,5,22,130,software
619,619,7,27,3,6,143,software
620,620,1,26,9,15,159,education
621,621,18,11,8,25,52,pharmaceutical
622,622,2,27,6,20,204,software
623,623,5,17,4,3,109,education
624,624,13,11,1,16,130,education
625,625,18,28,3,22,79,education
626,626,7,8,4,1,132,financial
627,627,0,6,6,23,122,realestate
628,628,10,11,8,4,158,pharmaceutical
629,629,2,20,2,13,205,software
630,630,16,21,8,17,148,realestate
631,631,12,7,1,6,99,retail
632,632,6,8,0,8,85,realestate
633,633,1,12,8,29,204,realestate
634,634,7,17,2,8,130,pharmaceutical
635,635,15,0,2,6,181,education
636,636,13,12,5,16,142,pharmaceutical
637,637,5,20,7,24,103,financial
638,638,5,1,1,23,119,financial
639,639,19,17,4,29,112,software
640,640,3,15,1,4,201,education
641,641,4,26,7,5,140,education
642,642,15,24,3,12,215,financial
643,643,5,14,8,8,123,software
644,644,19,24,8,2,91,financial
645,645,18,22,3,20,86,realestate
646,646,4,12,3,10,163,realestate
647,647,1,1,4,26,194,education
648,648,4,20,8,5,183,realestate
649,649,5,23,5,3,113,financial
650,650,19,5,1,0,115,education
651,651,11,19,4,22,119,realestate
652,652,12,5,4,17,100,retail
653,653,14,23,3,29,189,financial
654,654,7,14,2,22,167,pharmaceutical
655,655,6,4,7,16,40,software
656,656,7,16,9,13,158,software
657,657,3,6,0,9,187,software
658,658,4,22,7,28,152,pharmaceutical
659,659,15,10,3,9,185,software
660,660,3,20,0,22,166,software
661,661,2,7,3,19,213,retail
662,662,7,0,8,11,136,education
663,663,13,11,9,3,117,software
664,664,7,10,0,7,149,financial
665,665,9,10,3,17,80,software
666,666,11,11,8,15,111,education
667,667,16,3,5,13,154,realestate
668,668,18,29,7,28,57,financial
669,669,16,0,3,7,162,education
670,670,10,25,8,8,153,financial
671,671,17,24,3,9,201,financial
672,672,8,8,1,5,178,education
673,673,1,18,6,2,173,retail
674,674,11,13,4,19,135,realestate
675,675,2,8,5,8,215,realestate
676,676,16,16,8,11,149,realestate
677,677,10,14,5,7,118,software
678,678,5,2,0,13,111,financial
679,679,11,15,9,12,116,education
680,680,6,10,4,16,72,software
681,681,6,15,9,21,58,realestate
682,682,17,6,5,27,186,realestate
683,683,4,12,9,27,131,pharmaceutical
684,684,1,2,3,13,235,realestate
685,685,17,25,6,24,194,financial
686,686,2,6,7,21,217,software
687,687,13,24,9,14,97,retail
688,688,17,4,5,0,195,realestate
689,689,13,12,8,11,88,realestate
690,690,17,18,9,14,205,software
691,691,8,13,6,6,129,education
692,692,6,0,1,6,44,software
693,693,3,8,4,14,201,financial
694,694,12,15,0,17,110,realestate
695,695,18,24,6,29,102,realestate
696,696,4,6,0,11,184,realestate
697,697,18,7,7,26,97,retail
698,698,12,14,9,9,80,education
699,699,14,29,0,2,178,retail
700,700,3,9,8,14,168,pharmaceutical
701,701,0,16,3,12,121,education
702,702,7,27,8,5,163,retail
703,703,18,15,6,3,85,financial
704,704,19,18,8,5,105,education
705,705,3,6,4,26,196,financial
706,706,1,2,6,2,227,retail
707,707,0,21,3,4,121,pharmaceutical
708,708,10,25,0,25,99,software
709,709,8,9,0,16,115,financial
710,710,15,5,1,3,178,retail
711,711,2,25,4,24,202,pharmaceutical
712,712,15,7,7,9,220,pharmaceutical
713,713,16,3,5,16,155,realestate
714,714,10,7,5,19,140,financial
715,715,7,4,5,23,154,realestate
716,716,11,22,4,7,106,education
717,717,7,9,2,10,129,retail
718,718,6,2,7,29,46,education
719,719,2,5,6,5,208,pharmaceutical
720,720,14,11,2,18,184,pharmaceutical
721,721,5,2,1,2,105,retail
722,722,2,12,2,25,215,pharmaceutical
723,723,0,24,6,17,122,software
724,724,11,19,4,4,122,realestate
725,725,7,26,6,4,155,software
726,726,12,10,1,12,80,software
727,727,5,2,7,3,130,retail
728,728,17,24,2,23,190,financial
729,729,19,17,8,23,111,education
730,730,10,5,8,4,133,realestate
731,731,15,5,1,29,188,financial
732,732,14,25,1,26,182,retail
733,733,1,13,9,1,186,pharmaceutical
734,734,11,16,6,8,111,pharmaceutical
735,735,4,15,6,11,163,software
736,736,4,3,4,17,174,realestate
737,737,7,14,4,20,135,financial
738,738,9,18,1,16,69,software
739,739,7,0,1,13,165,financial
740,740,3,10,4,14,212,financial
741,741,7,27,2,27,138,realestate
742,742,9,18,6,20,68,education
743,743,7,12,6,20,149,realestate
744,744,10,9,0,24,142,education
745,745,1,13,9,23,157,financial
746,746,5,16,9,15,93,software
747,747,19,6,9,2,75,pharmaceutical
748,748,5,27,2,17,108,pharmaceutical
749,749,7,3,8,17,135,education
750,750,19,0,3,20,119,retail
751,751,10,0,1,29,152,realestate
752,752,11,28,3,22,127,realestate
753,753,5,19,1,23,107,education
754,754,2,26,8,14,218,retail
755,755,14,3,8,15,178,software
756,756,10,24,2,17,130,retail
757,757,3,23,7,18,213,realestate
758,758,5,17,8,15,133,realestate
759,759,0,21,2,27,120,education
760,760,19,8,9,1,106,realestate
761,761,5,14,5,15,122,education
762,762,4,16,4,23,146,realestate
763,763,16,7,8,11,153,pharmaceutical
764,764,1,8,1,27,211,realestate
765,765,18,1,3,24,101,education
766,766,3,3,1,20,169,realestate
767,767,18,28,7,22,72,software
768,768,14,9,4,20,188,pharmaceutical
769,769,13,16,5,17,141,financial
770,770,11,3,7,16,113,realestate
771,771,14,3,5,27,191,realestate
772,772,5,19,1,22,94,realestate
773,773,5,20,8,11,95,pharmaceutical
774,774,11,12,2,29,128,financial
775,775,8,12,9,12,178,pharmaceutical
776,776,3,6,3,20,177,financial
777,777,0,0,0,16,120,retail
778,778,0,1,1,20,121,realestate
779,779,13,7,4,13,145,realestate
780,780,13,12,6,17,99,realestate
781,781,7,12,9,26,121,retail
782,782,9,28,5,15,43,education
783,783,7,13,5,16,167,education
784,784,16,27,8,11,161,education
785,785,13,2,2,24,137,realestate
786,786,18,20,9,14,70,retail
787,787,7,8,1,20,132,education
788,788,11,12,7,10,103,financial
789,789,19,6,7,8,117,realestate
790,790,1,26,8,20,174,retail
791,791,2,22,7,19,206,financial
792,792,9,24,6,29,46,pharmaceutical
793,793,11,16,0,21,91,financial
794,794,11,23,3,18,110,financial
795,795,4,25,0,2,150,financial
796,796,15,27,0,6,212,realestate
797,797,5,14,0,18,114,education
798,798,1,12,8,19,230,software
799,799,5,12,6,11,112,education
800,800,10,12,6,6,146,pharmaceutical
801,801,19,4,3,16,98,retail
802,802,6,29,2,8,80,financial
803,803,2,9,9,8,205,financial
804,804,14,9,6,7,195,financial
805,805,0,12,9,18,119,retail
806,806,6,23,6,0,44,realestate
807,807,11,24,4,23,107,pharmaceutical
808,808,0,24,0,2,121,financial
809,809,18,11,9,16,82,software
810,810,17,8,1,27,191,realestate
811,811,9,8,2,3,92,realestate
812,812,10,22,4,1,159,education
813,813,1,29,5,10,162,pharmaceutical
814,814,17,29,9,10,185,retail
815,815,11,13,4,26,100,pharmaceutical
816,816,16,14,9,11,150,education
817,817,0,6,4,16,120,education
818,818,10,26,5,1,93,education
819,819,11,14,6,0,98,pharmaceutical
820,820,6,16,9,19,38,financial
821,821,11,3,7,13,116,financial
822,822,3,23,8,8,190,financial
823,823,15,3,7,3,197,retail
824,824,12,3,3,19,107,financial
825,825,9,23,3,0,91,pharmaceutical
826,826,15,1,1,28,198,education
827,827,9,10,7,22,92,financial
828,828,0,3,0,29,122,pharmaceutical
829,829,16,10,4,19,152,realestate
830,830,11,26,8,5,131,education
831,831,11,21,6,6,123,realestate
832,832,7,22,2,25,119,financial
833,833,19,24,4,26,80,education
834,834,19,3,6,29,118,education
835,835,15,25,2,16,207,retail
836,836,0,3,6,21,120,education
837,837,10,19,5,1,98,pharmaceutical
838,838,13,29,9,26,98,financial
839,839,7,14,1,6,152,retail
840,840,18,28,4,4,67,pharmaceutical
841,841,10,8,0,2,123,realestate
842,842,0,6,5,21,122,retail
843,843,11,0,2,24,135,software
844,844,3,14,3,9,202,financial
845,845,3,0,8,11,187,retail
846,846,6,28,8,29,84,education
847,847,17,2,1,3,195,software
848,848,15,21,1,20,199,education
849,849,2,22,3,29,200,education
850,850,13,8,2,29,110,education
851,851,2,9,5,29,217,realestate
852,852,19,4,3,25,82,software
853,853,14,22,1,12,194,education
854,854,4,1,7,28,160,financial
855,855,7,4,5,17,155,pharmaceutical
856,856,16,19,8,20,159,realestate
857,857,4,29,2,7,190,retail
858,858,12,0,4,19,90,financial
859,859,16,7,9,26,154,realestate
860,860,15,20,4,29,206,retail
861,861,1,20,5,18,175,retail
862,862,16,16,3,12,155,software
863,863,14,10,6,10,182,pharmaceutical
864,864,10,11,3,3,98,financial
865,865,9,11,4,21,68,realestate
866,866,14,7,3,18,183,software
867,867,16,18,4,19,153,pharmaceutical
868,868,6,20,4,0,45,financial
869,869,13,26,6,22,95,education
870,870,0,27,2,14,123,retail
871,871,13,7,6,25,113,pharmaceutical
872,872,12,12,2,18,106,education
873,873,0,12,4,17,121,pharmaceutical
874,874,7,28,9,4,159,financial
875,875,18,24,8,0,92,education
876,876,10,13,8,23,133,retail
877,877,3,13,6,0,178,education
878,878,5,8,6,8,115,pharmaceutical
879,879,5,18,9,6,112,pharmaceutical
880,880,2,17,4,2,214,realestate
881,881,0,14,7,14,123,realestate
882,882,13,5,2,21,140,financial
883,883,19,29,9,8,73,pharmaceutical
884,884,2,5,2,17,208,realestate
885,885,14,27,5,23,179,financial
886,886,15,28,0,22,216,software
887,887,6,0,3,1,80,realestate
888,888,4,27,5,10,134,financial
889,889,7,3,2,17,156,education
890,890,13,15,8,27,102,education
891,891,12,11,2,7,109,financial
892,892,2,15,7,5,203,pharmaceutical
893,893,18,7,7,5,65,education
894,894,9,14,6,10,96,realestate
895,895,12,9,6,4,93,pharmaceutical
896,896,18,22,6,0,61,financial
897,897,12,19,1,24,89,software
898,898,3,7,5,6,212,software
899,899,18,29,1,10,71,retail
900,900,11,13,3,23,138,pharmaceutical
901,901,2,1,6,16,207,software
902,902,15,1,6,20,195,retail
903,903,19,19,4,10,116,pharmaceutical
904,904,19,20,2,26,107,realestate
905,905,17,15,1,19,188,education
906,906,0,6,5,21,122,software
907,907,11,1,0,16,95,pharmaceutical
908,908,2,12,3,17,211,education
909,909,18,19,7,7,91,financial
910,910,0,26,5,13,120,retail
911,911,7,15,5,6,157,education
912,912,13,29,1,1,135,realestate
913,913,5,4,8,16,136,education
914,914,0,0,9,19,120,pharmaceutical
915,915,3,23,8,10,173,realestate
916,916,7,17,9,16,130,realestate
917,917,1,9,1,5,228,retail
918,918,16,0,7,8,150,education
919,919,16,5,1,8,158,pharmaceutical
920,920,13,24,7,29,107,pharmaceutical
921,921,11,28,0,21,111,realestate
922,922,7,6,5,23,144,pharmaceutical
923,923,7,8,6,21,132,pharmaceutical
924,924,4,28,4,25,131,retail
925,925,8,17,9,0,173,education
926,926,5,24,1,0,135,pharmaceutical
927,927,3,7,5,12,216,retail
928,928,12,5,7,21,97,financial
929,929,12,27,9,3,92,realestate
930,930,18,26,9,2,79,financial
931,931,9,17,9,16,69,education
932,932,17,5,0,22,190,retail
933,933,13,16,9,10,141,education
934,934,3,21,2,8,191,retail
935,935,15,27,2,17,200,pharmaceutical
936,936,14,8,0,4,186,software
937,937,0,21,8,6,123,retail
938,938,9,15,5,7,90,retail
939,939,13,12,2,14,120,education
940,940,15,6,6,15,200,software
941,941,12,8,0,15,103,retail
942,942,5,26,2,14,103,financial
943,943,0,25,0,16,120,software
944,944,11,29,2,28,122,education
945,945,5,24,0,4,111,software
946,946,15,11,8,2,192,retail
947,947,13,5,0,27,113,financial
948,948,7,0,4,6,135,pharmaceutical
949,949,5,1,9,23,127,retail
950,950,19,28,9,0,88,realestate
951,951,18,8,5,5,91,retail
952,952,2,21,7,28,199,realestate
953,953,11,20,3,23,107,software
954,954,19,25,5,23,87,retail
955,955,14,13,6,14,196,software
956,956,9,13,1,10,65,realestate
957,957,11,2,7,2,102,realestate
958,958,8,13,5,25,111,education
959,959,18,5,4,4,81,realestate
960,960,3,22,8,22,175,pharmaceutical
961,961,14,10,4,7,193,education
962,962,18,16,1,28,96,financial
963,963,4,15,2,15,166,retail
964,964,7,2,2,13,133,realestate
965,965,14,26,0,22,186,retail
966,966,15,11,5,5,211,software
967,967,11,8,6,12,114,realestate
968,968,7,4,1,29,142,pharmaceutical
969,969,14,14,6,21,186,education
970,970,16,26,9,23,159,software
971,971,17,28,5,18,188,realestate
972,972,0,25,0,17,119,realestate
973,973,1,27,8,20,218,retail
974,974,19,17,4,2,102,education
975,975,2,16,5,14,207,education
976,976,12,25,7,10,86,retail
977,977,9,1,5,5,49,financial
978,978,6,8,9,25,51,retail
979,979,14,22,9,11,194,realestate
980,980,8,10,7,9,167,education
981,981,8,25,4,15,193,retail
982,982,17,27,6,20,192,software
983,983,7,1,2,2,144,pharmaceutical
984,984,11,11,7,19,124,retail
985,985,3,9,5,8,176,realestate
986,986,6,14,7,28,76,financial
987,987,0,7,3,25,119,software
988,988,1,0,6,19,235,pharmaceutical
989,989,3,7,7,19,180,financial
990,990,18,1,4,3,87,realestate
991,991,9,7,0,7,59,retail
992,992,16,15,8,21,154,pharmaceutical
993,993,17,14,0,11,192,realestate
994,994,4,17,2,5,158,education
995,995,4,4,6,12,191,pharmaceutical
996,996,8,9,7,9,165,education
997,997,17,19,1,20,198,pharmaceutical
998,998,11,20,4,23,121,retail
999,999,9,10,4,7,101,pharmaceutical
1000,1000,10,20,9,18,128,retail
1001,1001,14,12,4,25,199,education
1002,1002,1,8,7,0,196,education
1003,1003,11,16,3,25,119,software
1004,1004,11,14,8,4,114,education
1005,1005,17,9,2,29,184,retail
1006,1006,3,24,7,1,184,education
1007,1007,15,28,8,22,209,pharmaceutical
1008,1008,14,11,7,29,179,pharmaceutical
1009,1009,5,7,3,26,97,realestate
1010,1010,4,3,1,16,176,pharmaceutical
1011,1011,14,3,8,1,194,realestate
1012,1012,15,28,5,17,220,pharmaceutical
1013,1013,12,28,3,25,82,realestate
1014,1014,13,9,1,5,104,retail
1015,1015,3,14,7,17,200,retail
1016,1016,10,16,3,5,141,financial
1017,1017,8,13,5,12,182,pharmaceutical
1018,1018,7,15,8,20,125,education
1019,1019,14,9,5,28,181,financial
1020,1020,7,16,1,5,166,software
1021,1021,12,13,2,1,95,pharmaceutical
1022,1022,12,12,3,13,107,retail
1023,1023,1,24,4,28,223,retail
1024,1024,11,28,1,3,128,pharmaceutical
1025,1025,9,11,5,28,101,retail
1026,1026,16,0,6,0,154,retail
1027,1027,1,21,3,4,156,financial
1028,1028,10,21,9,19,95,education
1029,1029,1,19,1,18,212,realestate
1030,1030,16,5,8,10,147,pharmaceutical
1031,1031,16,5,6,11,162,education
1032,1032,0,19,0,25,121,education
1033,1033,1,23,7,19,213,education
1034,1034,18,1,1,0,100,financial
1035,1035,14,9,6,24,180,education
1036,1036,7,22,0,24,160,retail
1037,1037,16,23,4,26,161,pharmaceutical
1038,1038,0,27,1,17,122,education
1039,1039,2,29,0,26,209,pharmaceutical
1040,1040,14,27,9,15,190,education
1041,1041,15,25,0,12,183,education
1042,1042,19,23,5,14,89,realestate
1043,1043,13,29,5,12,144,retail
1044,1044,8,14,1,1,129,software
1045,1045,11,2,6,21,110,retail
1046,1046,7,15,6,13,135,realestate
1047,1047,2,27,4,23,206,pharmaceutical
1048,1048,0,5,0,22,121,retail
1049,1049,9,20,8,22,77,financial
1050,1050,0,1,8,22,119,education
1051,1051,0,5,5,4,120,education
1052,1052,17,12,9,22,202,software
1053,1053,2,12,0,28,205,education
1054,1054,9,8,5,12,59,financial
1055,1055,4,10,7,15,171,education
1056,1056,7,18,0,22,144,realestate
1057,1057,15,8,0,8,182,pharmaceutical
1058,1058,14,23,8,0,189,financial
1059,1059,6,6,6,20,60,software
1060,1060,16,1,6,17,151,pharmaceutical
1061,1061,4,5,8,22,137,realestate
1062,1062,9,9,4,6,51,retail
1063,1063,4,9,5,17,175,realestate
1064,1064,9,27,7,10,82,pharmaceutical
1065,1065,2,28,1,10,218,realestate
1066,1066,5,19,9,10,100,pharmaceutical
1067,1067,19,26,4,7,89,realestate
1068,1068,12,11,2,23,79,education
1069,1069,10,4,6,27,119,retail
1070,1070,14,21,5,13,198,retail
1071,1071,7,2,0,15,142,pharmaceutical
1072,1072,3,20,9,14,186,software
1073,1073,14,18,2,0,180,retail
1074,1074,5,28,1,29,129,pharmaceutical
1075,1075,10,14,6,20,156,education
1076,1076,4,2,7,13,194,financial
1077,1077,2,15,9,19,215,realestate
1078,1078,16,6,0,18,160,education
1079,1079,16,4,1,11,161,financial
1080,1080,15,4,2,22,205,software
1081,1081,15,28,4,0,217,retail
1082,1082,15,7,6,15,212,pharmaceutical
1083,1083,9,1,5,21,105,realestate
1084,1084,18,15,5,19,73,software
1085,1085,17,2,5,9,204,realestate
1086,1086,5,7,1,4,106,realestate
1087,1087,8,19,9,6,161,software
1088,1088,0,13,7,6,120,financial
1089,1089,7,24,9,16,137,financial
1090,1090,2,0,2,4,215,financial
1091,1091,16,18,9,14,150,software
1092,1092,2,27,5,6,212,education
1093,1093,17,10,6,20,200,financial
1094,1094,14,26,5,5,199,pharmaceutical
1095,1095,5,0,6,15,133,realestate
1096,1096,8,4,3,29,178,education
1097,1097,13,8,4,12,92,software
1098,1098,7,12,4,27,160,retail
1099,1099,10,2,1,12,134,pharmaceutical
1100,1100,6,3,1,16,86,pharmaceutical
1101,1101,15,17,0,8,185,retail
1102,1102,5,9,7,4,140,retail
1103,1103,10,3,3,12,144,education
1104,1104,6,24,1,24,65,pharmaceutical
1105,1105,15,10,4,3,188,retail
1106,1106,19,8,2,21,74,software
1107,1107,6,6,7,27,45,software
1108,1108,1,1,5,25,233,education
1109,1109,13,24,2,5,103,financial
1110,1110,10,25,4,8,90,realestate
1111,1111,17,27,6,24,186,pharmaceutical
1112,1112,11,15,1,1,106,financial
1113,1113,5,20,4,23,128,education
1114,1114,6,23,2,1,79,retail
1115,1115,6,8,2,25,41,education
1116,1116,2,2,4,6,212,retail
1117,1117,8,8,4,17,160,realestate
1118,1118,16,23,5,6,161,retail
1119,1119,15,5,5,28,219,pharmaceutical
1120,1120,19,13,8,6,75,financial
1121,1121,15,19,6,15,214,software
1122,1122,19,15,0,14,108,pharmaceutical
1123,1123,3,1,6,14,183,education
1124,1124,16,2,3,3,159,realestate
1125,1125,11,29,0,26,124,pharmaceutical
1126,1126,7,13,4,1,162,education
1127,1127,4,18,1,1,163,pharmaceutical
1128,1128,17,12,0,10,197,financial
1129,1129,7,28,5,19,155,pharmaceutical
1130,1130,16,1,0,16,155,realestate
1131,1131,7,9,2,12,162,realestate
1132,1132,5,25,8,8,119,software
1133,1133,14,23,7,15,179,pharmaceutical
1134,1134,10,21,3,4,97,education
1135,1135,4,17,2,8,167,education
1136,1136,6,25,0,18,72,software
1137,1137,12,25,4,18,80,education
1138,1138,16,2,1,1,154,pharmaceutical
1139,1139,0,22,2,11,121,retail
1140,1140,12,6,5,2,81,pharmaceutical
1141,1141,4,11,0,29,149,software
1142,1142,3,13,5,2,175,education
1143,1143,6,14,0,4,60,retail
1144,1144,8,0,5,29,154,retail
1145,1145,7,17,5,12,137,education
1146,1146,17,25,7,7,198,software
1147,1147,3,25,0,23,173,software
1148,1148,1,2,1,2,211,realestate
1149,1149,17,14,5,10,195,pharmaceutical
1150,1150,19,10,5,25,113,retail
1151,1151,19,0,0,2,109,software
1152,1152,8,6,0,8,206,education
1153,1153,2,18,6,4,207,retail
1154,1154,14,17,6,23,190,realestate
1155,1155,18,20,8,22,102,education
1156,1156,6,2,1,3,60,financial
1157,1157,11,27,4,27,106,education
1158,1158,13,3,3,12,102,software
1159,1159,11,7,0,8,139,financial
1160,1160,5,11,8,12,118,financial
1161,1161,3,22,2,20,176,pharmaceutical
1162,1162,8,1,8,2,190,financial
1163,1163,17,28,6,13,199,pharmaceutical
1164,1164,9,27,2,7,105,software
1165,1165,9,25,4,26,66,software
1166,1166,3,16,6,0,171,financial
1167,1167,15,6,9,7,201,software
1168,1168,4,25,2,6,174,education
1169,1169,8,14,2,16,137,education
1170,1170,6,4,0,8,75,retail
1171,1171,13,7,4,13,116,retail
1172,1172,18,15,1,27,99,realestate
1173,1173,3,15,9,16,167,software
1174,1174,3,24,4,10,214,software
1175,1175,9,15,8,7,44,realestate
1176,1176,4,0,8,19,192,pharmaceutical
1177,1177,14,15,4,6,187,software
1178,1178,18,19,3,2,57,realestate
1179,1179,3,27,4,9,210,pharmaceutical
1180,1180,19,14,2,26,115,retail
1181,1181,2,6,6,12,218,retail
1182,1182,13,22,0,17,86,realestate
1183,1183,19,1,7,0,72,financial
1184,1184,10,4,0,6,138,software
1185,1185,9,12,0,6,58,financial
1186,1186,15,20,1,24,199,retail
1187,1187,18,13,5,12,57,software
1188,1188,16,21,8,27,156,retail
1189,1189,2,12,4,28,205,education
1190,1190,7,20,7,19,130,financial
1191,1191,16,24,8,13,146,pharmaceutical
1192,1192,4,26,8,27,161,retail
1193,1193,9,2,5,6,52,software
1194,1194,10,7,5,0,99,software
1195,1195,4,11,5,27,151,pharmaceutical
1196,1196,6,4,5,4,69,retail
1197,1197,2,18,2,27,207,retail
1198,1198,11,13,2,2,113,retail
1199,1199,9,26,3,17,54,financial
1200,1200,3,2,6,16,180,realestate
1201,1201,0,4,7,17,123,retail
1202,1202,19,22,1,16,75,realestate
1203,1203,9,23,8,18,59,realestate
1204,1204,1,15,1,19,161,realestate
1205,1205,5,20,1,5,122,financial
1206,1206,16,20,4,6,154,financial
1207,1207,12,13,6,22,107,software
1208,1208,10,5,4,24,133,realestate
1209,1209,5,16,9,12,109,pharmaceutical
1210,1210,7,15,3,21,139,retail
1211,1211,15,15,3,20,212,pharmaceutical
1212,1212,1,26,3,22,228,retail
1213,1213,12,7,2,1,88,software
1214,1214,14,23,7,10,187,financial
1215,1215,16,0,1,5,162,financial
1216,1216,1,29,8,29,174,software
1217,1217,6,25,6,24,50,financial
1218,1218,13,12,4,12,121,pharmaceutical
1219,1219,6,15,4,27,52,pharmaceutical
1220,1220,18,3,2,11,70,financial
1221,1221,2,22,8,9,210,pharmaceutical
1222,1222,17,13,8,8,194,pharmaceutical
1223,1223,2,6,7,3,205,education
1224,1224,1,9,0,25,209,education
1225,1225,14,9,8,24,182,education
1226,1226,3,15,9,15,203,financial
1227,1227,14,14,6,15,186,realestate
1228,1228,4,27,1,6,149,education
1229,1229,14,16,1,10,195,financial
1230,1230,3,8,2,17,186,realestate
1231,1231,13,20,3,24,101,pharmaceutical
1232,1232,1,11,0,13,168,retail
1233,1233,15,27,4,22,180,financial
1234,1234,8,18,0,18,164,pharmaceutical
1235,1235,15,12,0,0,187,financial
1236,1236,19,15,8,11,109,education
1237,1237,4,14,9,6,172,financial
1238,1238,12,0,2,18,96,retail
1239,1239,2,26,6,10,208,retail
1240,1240,4,9,7,24,189,retail
1241,1241,9,23,0,1,50,education
1242,1242,17,28,1,11,189,financial
1243,1243,11,21,6,17,115,pharmaceutical
1244,1244,5,9,8,8,140,retail
1245,1245,4,26,1,3,169,retail
1246,1246,11,24,9,4,108,retail
1247,1247,12,22,2,10,101,financial
1248,1248,3,20,4,25,212,software
1249,1249,12,11,9,23,91,realestate
1250,1250,2,16,1,4,217,education
1251,1251,16,4,3,5,148,financial
1252,1252,4,7,7,11,157,pharmaceutical
1253,1253,4,15,7,15,186,education
1254,1254,0,5,1,21,119,financial
1255,1255,17,1,1,8,195,education
1256,1256,9,0,5,19,68,pharmaceutical
1257,1257,10,7,4,8,100,pharmaceutical
1258,1258,7,18,7,13,154,realestate
1259,1259,13,20,8,28,146,education
1260,1260,8,8,1,4,185,realestate
1261,1261,5,22,7,19,93,education
1262,1262,1,16,4,13,182,education
1263,1263,19,10,2,6,114,realestate
1264,1264,10,4,8,19,154,realestate
1265,1265,10,20,6,11,148,financial
1266,1266,17,25,1,1,205,software
1267,1267,12,21,9,29,102,software
1268,1268,2,7,2,25,206,education
1269,1269,18,2,7,18,99,pharmaceutical
1270,1270,14,15,5,6,188,education
1271,1271,11,25,1,17,99,software
1272,1272,10,20,9,17,92,education
1273,1273,17,29,9,26,197,realestate
1274,1274,0,2,1,1,123,education
1275,1275,10,13,6,14,126,realestate
1276,1276,12,18,8,2,97,financial
1277,1277,16,15,7,27,152,financial
1278,1278,19,6,1,19,110,pharmaceutical
1279,1279,1,8,5,11,234,financial
1280,1280,5,9,5,22,131,pharmaceutical
1281,1281,4,1,8,14,175,pharmaceutical
1282,1282,0,28,6,26,122,education
1283,1283,13,1,8,13,111,software
1284,1284,2,25,5,12,209,financial
1285,1285,0,29,3,24,123,software
1286,1286,19,24,4,3,86,retail
1287,1287,5,6,0,18,126,realestate
1288,1288,7,21,1,21,130,financial
1289,1289,15,23,0,7,203,education
1290,1290,2,13,6,27,205,retail
1291,1291,13,11,3,8,96,retail
1292,1292,12,10,0,27,103,pharmaceutical
1293,1293,11,21,2,10,133,retail
1294,1294,12,10,3,5,105,pharmaceutical
1295,1295,3,25,7,5,165,retail
1296,1296,15,11,9,24,208,realestate
1297,1297,8,14,5,23,163,realestate
1298,1298,14,16,6,26,184,education
1299,1299,4,9,1,11,161,education
1300,1300,4,27,8,7,135,software
1301,1301,13,21,3,13,109,realestate
1302,1302,19,4,6,7,78,financial
1303,1303,12,10,9,8,102,software
1304,1304,9,14,0,29,43,financial
1305,1305,5,29,3,26,137,pharmaceutical
1306,1306,0,8,9,11,121,realestate
1307,1307,1,12,9,13,214,realestate
1308,1308,18,22,6,6,71,software
1309,1309,17,28,2,8,189,realestate
1310,1310,6,1,7,18,74,retail
1311,1311,13,8,9,26,104,education
1312,1312,18,18,7,23,77,realestate
1313,1313,1,6,2,22,187,pharmaceutical
1314,1314,8,6,8,19,120,pharmaceutical
1315,1315,8,6,1,7,165,pharmaceutical
1316,1316,16,6,5,24,162,software
1317,1317,10,15,2,9,121,realestate
1318,1318,6,3,8,9,60,education
1319,1319,3,29,7,18,204,financial
1320,1320,3,14,0,15,173,retail
1321,1321,19,4,3,11,107,financial
1322,1322,12,8,4,6,80,financial
1323,1323,4,19,6,25,153,pharmaceutical
1324,1324,13,4,7,25,103,financial
1325,1325,12,10,7,19,81,software
1326,1326,12,5,5,20,97,realestate
1327,1327,9,22,8,8,50,pharmaceutical
1328,1328,19,4,6,25,83,retail
1329,1329,13,11,9,8,129,retail
1330,1330,10,22,3,14,106,realestate
1331,1331,10,17,1,15,156,education
1332,1332,11,3,9,14,98,software
1333,1333,11,27,3,4,131,education
1334,1334,2,22,2,4,204,financial
1335,1335,19,4,2,13,102,pharmaceutical
1336,1336,17,8,6,10,205,realestate
1337,1337,10,29,4,8,124,realestate
1338,1338,12,0,7,6,93,education
1339,1339,0,19,4,10,122,software
1340,1340,3,10,7,8,176,education
1341,1341,15,18,3,22,208,financial
1342,1342,17,4,9,21,190,pharmaceutical
1343,1343,14,5,7,6,193,realestate
1344,1344,7,0,0,6,129,pharmaceutical
1345,1345,8,18,2,18,156,realestate
1346,1346,18,7,2,5,69,realestate
1347,1347,3,6,5,23,216,education
1348,1348,18,18,4,29,72,realestate
1349,1349,6,29,3,26,63,realestate
1350,1350,17,15,8,1,192,financial
1351,1351,17,27,2,15,183,retail
1352,1352,3,12,5,2,207,software
1353,1353,14,28,1,26,183,retail
1354,1354,0,21,9,26,122,software
1355,1355,0,15,2,14,120,software
1356,1356,15,11,8,18,183,financial
1357,1357,4,12,4,9,178,pharmaceutical
1358,1358,18,13,9,26,87,financial
1359,1359,18,11,2,13,90,retail
1360,1360,7,13,9,23,146,pharmaceutical
1361,1361,18,23,8,1,92,financial
1362,1362,14,25,0,18,180,retail
1363,1363,15,29,7,10,220,retail
1364,1364,13,15,7,11,145,financial
1365,1365,13,20,4,17,117,pharmaceutical
1366,1366,19,17,6,25,97,software
1367,1367,2,25,8,0,218,education
1368,1368,17,17,9,21,189,software
1369,1369,11,13,4,25,104,financial
1370,1370,17,14,1,1,203,realestate
1371,1371,14,5,9,24,187,education
1372,1372,7,28,3,6,148,education
1373,1373,2,23,5,6,213,pharmaceutical
1374,1374,6,11,0,8,45,realestate
1375,1375,15,22,2,4,202,pharmaceutical
1376,1376,3,16,1,23,167,software
1377,1377,0,20,4,25,120,financial
1378,1378,1,13,0,10,235,retail
1379,1379,15,18,8,14,201,realestate
1380,1380,4,24,3,1,166,pharmaceutical
1381,1381,7,17,8,16,124,pharmaceutical
1382,1382,17,24,1,28,186,pharmaceutical
1383,1383,9,26,4,15,92,retail
1384,1384,12,27,6,14,85,financial
1385,1385,19,18,9,25,85,realestate
1386,1386,15,4,1,14,180,realestate
1387,1387,1,2,5,27,218,financial
1388,1388,14,28,5,15,188,software
1389,1389,7,14,9,20,129,education
1390,1390,1,17,6,17,176,realestate
1391,1391,4,18,6,25,193,retail
1392,1392,15,25,6,7,188,software
1393,1393,10,19,1,3,152,realestate
1394,1394,10,10,5,0,102,pharmaceutical
1395,1395,11,26,6,18,98,education
1396,1396,9,19,3,27,71,financial
1397,1397,12,11,2,29,99,education
1398,1398,10,1,4,3,122,realestate
1399,1399,8,6,6,11,150,pharmaceutical
1400,1400,17,19,6,26,186,retail
1401,1401,13,2,2,4,107,financial
1402,1402,11,11,9,3,121,financial
1403,1403,12,28,8,28,108,financial
1404,1404,19,21,4,6,102,financial
1405,1405,1,3,7,25,166,realestate
1406,1406,7,1,3,11,119,retail
1407,1407,5,13,7,7,134,retail
1408,1408,15,2,5,23,206,retail
1409,1409,1,27,0,6,184,realestate
1410,1410,3,14,5,28,172,retail
1411,1411,11,23,1,2,97,realestate
1412,1412,6,27,4,13,42,financial
1413,1413,15,10,7,19,202,realestate
1414,1414,9,3,7,6,74,pharmaceutical
1415,1415,18,3,4,22,87,realestate
1416,1416,5,16,8,5,105,pharmaceutical
1417,1417,2,26,0,12,200,education
1418,1418,17,21,6,29,205,retail
1419,1419,8,15,7,17,158,education
1420,1420,19,12,7,21,117,education
1421,1421,5,11,1,9,112,education
1422,1422,1,18,5,13,234,education
1423,1423,1,9,1,25,214,retail
1424,1424,14,12,2,27,178,pharmaceutical
1425,1425,6,26,2,29,84,software
1426,1426,14,26,7,25,179,retail
1427,1427,9,18,9,0,102,pharmaceutical
1428,1428,2,12,4,23,212,realestate
1429,1429,10,18,1,14,154,education
1430,1430,0,1,3,4,121,education
1431,1431,5,20,6,18,112,pharmaceutical
1432,1432,2,7,5,16,212,pharmaceutical
1433,1433,19,11,5,20,72,retail
1434,1434,14,29,5,29,187,realestate
1435,1435,10,27,9,22,121,retail
1436,1436,5,8,0,28,121,education
1437,1437,14,5,5,15,197,education
1438,1438,12,17,5,13,94,education
1439,1439,2,0,8,13,219,pharmaceutical
1440,1440,14,13,8,16,190,pharmaceutical
1441,1441,16,17,1,10,148,retail
1442,1442,10,21,0,13,123,pharmaceutical
1443,1443,13,14,6,6,133,education
1444,1444,16,11,7,24,161,retail
1445,1445,4,13,5,1,150,pharmaceutical
1446,1446,17,21,4,15,194,education
1447,1447,12,8,7,29,79,education
1448,1448,4,16,6,14,139,retail
1449,1449,16,27,6,3,159,retail
1450,1450,6,27,1,2,53,financial
1451,1451,13,15,0,12,144,education
1452,1452,4,16,4,19,195,pharmaceutical
1453,1453,13,20,0,10,101,realestate
1454,1454,6,10,1,2,46,retail
1455,1455,12,14,2,19,98,software
1456,1456,13,16,1,24,90,software
1457,1457,13,20,8,19,123,pharmaceutical
1458,1458,5,9,6,6,118,financial
1459,1459,2,10,9,16,212,financial
1460,1460,18,5,2,7,88,software
1461,1461,0,16,4,8,121,realestate
1462,1462,15,19,1,11,196,pharmaceutical
1463,1463,9,17,3,5,67,pharmaceutical
1464,1464,16,14,4,25,162,realestate
1465,1465,6,10,0,4,70,pharmaceutical
1466,1466,18,26,7,7,91,software
1467,1467,19,0,8,14,109,realestate
1468,1468,2,8,5,13,214,education
1469,1469,4,14,9,29,190,realestate
1470,1470,7,18,0,12,153,financial
1471,1471,3,11,2,26,185,financial
1472,1472,14,7,4,16,190,financial
1473,1473,0,20,8,23,120,retail
1474,1474,15,14,1,18,182,pharmaceutical
1475,1475,10,12,9,12,153,software
1476,1476,10,5,1,1,92,education
1477,1477,0,6,0,20,121,software
1478,1478,13,17,0,24,129,retail
1479,1479,3,15,1,1,198,retail
1480,1480,1,2,2,1,161,education
1481,1481,4,13,8,9,192,realestate
1482,1482,5,0,1,24,120,software
1483,1483,4,5,4,20,175,financial
1484,1484,18,10,1,14,87,software
1485,1485,13,2,0,24,123,education
1486,1486,5,16,3,9,95,pharmaceutical
1487,1487,5,15,2,18,93,pharmaceutical
1488,1488,11,19,5,24,102,realestate
1489,1489,3,0,5,3,191,software
1490,1490,4,1,9,22,141,financial
1491,1491,2,22,5,24,219,education
1492,1492,4,20,3,12,147,pharmaceutical
1493,1493,17,19,3,7,202,financial
1494,1494,14,9,3,12,183,retail
1495,1495,4,12,2,2,145,financial
1496,1496,2,4,8,3,209,education
1497,1497,9,9,6,26,103,education
1498,1498,2,24,3,4,209,education
1499,1499,16,10,2,23,149,software
1500,1500,11,12,9,5,126,retail
1501,1501,2,10,9,5,202,software
1502,1502,2,10,3,19,216,realestate
1503,1503,13,14,8,3,122,software
1504,1504,3,26,6,19,168,education
1505,1505,18,17,6,24,101,pharmaceutical
1506,1506,5,15,1,3,103,software
1507,1507,9,18,5,14,96,pharmaceutical
1508,1508,5,0,1,16,97,education
1509,1509,1,5,0,12,197,education
1510,1510,18,16,1,17,94,software
1511,1511,3,12,3,5,174,retail
1512,1512,9,0,8,18,66,realestate
1513,1513,7,2,9,1,129,software
1514,1514,19,17,2,6,73,retail
1515,1515,8,6,8,24,196,pharmaceutical
1516,1516,18,17,9,4,78,financial
1517,1517,15,25,1,23,184,software
1518,1518,5,0,6,10,135,software
1519,1519,0,4,9,14,121,financial
1520,1520,9,27,9,26,45,software
1521,1521,5,18,0,20,99,pharmaceutical
1522,1522,4,19,2,2,170,financial
1523,1523,4,13,3,17,141,pharmaceutical
1524,1524,4,27,2,11,157,realestate
1525,1525,15,19,8,19,200,realestate
1526,1526,18,23,1,16,52,financial
1527,1527,6,16,8,19,78,retail
1528,1528,1,16,4,17,217,pharmaceutical
1529,1529,16,9,7,9,154,software
1530,1530,3,17,3,23,205,pharmaceutical
1531,1531,1,17,9,13,194,pharmaceutical
1532,1532,6,16,1,24,66,education
1533,1533,1,9,2,13,229,financial
1534,1534,16,28,6,3,156,retail
1535,1535,15,22,1,16,203,financial
1536,1536,6,28,4,23,69,software
1537,1537,1,27,4,7,224,financial
1538,1538,6,20,6,13,48,retail
1539,1539,12,14,2,18,89,retail
1540,1540,19,11,6,20,99,education
1541,1541,8,23,8,21,142,education
1542,1542,19,8,4,9,114,software
1543,1543,1,29,5,17,188,realestate
1544,1544,3,17,0,26,171,realestate
1545,1545,16,18,7,22,154,software
1546,1546,4,22,9,15,147,education
1547,1547,6,4,4,25,68,realestate
1548,1548,2,6,4,14,216,retail
1549,1549,1,18,8,19,156,retail
1550,1550,18,25,5,21,80,financial
1551,1551,10,22,2,28,105,pharmaceutical
1552,1552,10,18,4,28,92,financial
1553,1553,14,23,6,27,194,retail
1554,1554,14,8,4,2,195,software
1555,1555,5,17,2,19,117,education
1556,1556,9,1,0,6,82,pharmaceutical
1557,1557,13,19,0,4,99,software
1558,1558,5,26,8,28,127,education
1559,1559,16,1,8,12,146,realestate
1560,1560,12,21,0,18,101,retail
1561,1561,8,23,1,24,161,financial
1562,1562,13,26,8,17,118,education
1563,1563,17,16,5,24,184,financial
1564,1564,13,23,1,9,96,financial
1565,1565,6,4,1,9,83,retail
1566,1566,10,29,7,29,141,software
1567,1567,13,14,2,16,102,realestate
1568,1568,14,16,8,17,189,realestate
1569,1569,13,18,8,25,115,education
1570,1570,8,6,3,7,134,education
1571,1571,4,29,2,16,148,financial
1572,1572,1,15,0,2,197,pharmaceutical
1573,1573,14,26,2,23,189,software
1574,1574,9,5,4,23,95,education
1575,1575,0,18,7,13,119,pharmaceutical
1576,1576,16,17,9,7,147,pharmaceutical
1577,1577,15,16,5,15,179,education
1578,1578,16,9,5,23,150,pharmaceutical
1579,1579,6,0,0,7,61,pharmaceutical
1580,1580,8,7,1,3,117,software
1581,1581,9,1,0,0,89,pharmaceutical
1582,1582,17,28,5,12,204,realestate
1583,1583,17,20,8,23,203,education
1584,1584,2,23,6,20,208,education
1585,1585,15,26,9,6,194,software
1586,1586,5,11,7,3,116,software
1587,1587,17,8,2,9,186,financial
1588,1588,5,12,7,24,124,education
1589,1589,19,18,9,8,95,education
1590,1590,6,23,7,22,47,education
1591,1591,5,13,6,22,137,retail
1592,1592,8,25,4,17,208,education
1593,1593,16,14,1,18,146,education
1594,1594,4,18,8,25,134,financial
1595,1595,5,2,4,15,140,software
1596,1596,6,12,8,3,71,financial
1597,1597,19,24,9,9,107,education
1598,1598,6,21,5,0,59,software
1599,1599,11,6,9,10,127,retail
1600,1600,12,18,0,4,89,education
1601,1601,19,25,1,0,102,realestate
1602,1602,12,1,8,5,89,software
1603,1603,12,21,1,25,79,retail
1604,1604,4,10,3,12,142,financial
1605,1605,13,0,4,2,126,pharmaceutical
1606,1606,18,22,8,28,85,realestate
1607,1607,11,19,1,28,95,education
1608,1608,12,17,4,17,100,financial
1609,1609,5,0,2,22,110,financial
1610,1610,15,11,0,9,183,pharmaceutical
1611,1611,19,28,4,14,73,pharmaceutical
1612,1612,2,17,8,17,203,education
1613,1613,12,20,0,15,87,financial
1614,1614,13,20,4,12,128,education
1615,1615,15,28,5,5,204,financial
1616,1616,19,16,3,7,79,software
1617,1617,19,11,6,17,89,pharmaceutical
1618,1618,15,3,9,12,218,realestate
1619,1619,15,7,9,3,187,financial
1620,1620,3,19,9,0,167,realestate
1621,1621,12,2,5,19,89,education
1622,1622,13,11,1,10,114,realestate
1623,1623,12,10,9,3,93,retail
1624,1624,4,24,8,1,163,pharmaceutical
1625,1625,8,26,8,5,135,realestate
1626,1626,19,9,2,0,115,financial
1627,1627,8,10,8,13,125,education
1628,1628,10,14,7,8,88,pharmaceutical
1629,1629,13,15,5,19,108,education
1630,1630,18,29,4,20,100,realestate
1631,1631,5,21,5,0,135,pharmaceutical
1632,1632,4,6,2,28,179,retail
1633,1633,19,26,4,27,74,retail
1634,1634,10,5,0,16,129,financial
1635,1635,9,15,3,26,59,education
1636,1636,6,19,0,29,85,financial
1637,1637,14,12,4,16,193,retail
1638,1638,16,12,3,13,149,financial
1639,1639,8,4,7,27,180,retail
1640,1640,10,0,7,27,156,education
1641,1641,17,4,6,21,188,realestate
1642,1642,12,28,5,8,87,retail
1643,1643,18,21,9,3,57,realestate
1644,1644,6,16,8,13,71,retail
1645,1645,14,12,6,19,197,pharmaceutical
1646,1646,2,12,8,7,200,software
1647,1647,15,23,9,16,209,realestate
1648,1648,7,15,8,9,133,pharmaceutical
1649,1649,2,23,8,1,203,pharmaceutical
1650,1650,18,21,8,10,98,realestate
1651,1651,12,19,7,23,92,software
1652,1652,15,23,7,16,187,realestate
1653,1653,5,1,9,11,111,pharmaceutical
1654,1654,15,26,2,19,190,realestate
1655,1655,12,4,6,10,81,retail
1656,1656,9,14,1,15,46,retail
1657,1657,5,17,5,16,137,realestate
1658,1658,4,7,0,18,130,pharmaceutical
1659,1659,4,17,8,6,137,education
1660,1660,14,24,4,23,179,pharmaceutical
1661,1661,0,23,6,27,120,retail
1662,1662,5,22,4,4,109,software
1663,1663,16,6,5,11,161,financial
1664,1664,5,26,0,1,95,pharmaceutical
1665,1665,19,7,3,19,90,financial
1666,1666,17,7,7,0,193,education
1667,1667,3,9,4,28,214,pharmaceutical
1668,1668,4,22,4,14,173,financial
1669,1669,4,21,9,15,151,financial
1670,1670,14,28,0,6,195,realestate
1671,1671,10,7,6,22,147,pharmaceutical
1672,1672,18,16,2,5,95,financial
1673,1673,0,14,2,3,120,financial
1674,1674,4,24,2,11,174,software
1675,1675,14,0,7,18,186,retail
1676,1676,2,6,4,17,210,retail
1677,1677,19,26,9,26,117,retail
1678,1678,8,20,6,7,127,software
1679,1679,5,6,5,1,98,education
1680,1680,14,18,3,18,192,retail
1681,1681,9,2,6,23,89,education
1682,1682,16,16,0,22,157,software
1683,1683,11,15,8,14,98,education
1684,1684,13,6,4,5,109,pharmaceutical
1685,1685,3,16,5,22,213,education
1686,1686,6,7,0,5,47,realestate
1687,1687,6,12,4,24,38,retail
1688,1688,10,15,0,24,158,financial
1689,1689,2,16,9,15,200,financial
1690,1690,1,2,7,28,217,realestate
1691,1691,10,22,4,12,148,education
1692,1692,17,3,0,7,186,retail
1693,1693,16,18,9,1,160,education
1694,1694,12,4,2,24,101,software
1695,1695,6,19,8,22,61,retail
1696,1696,16,20,4,9,160,software
1697,1697,17,18,8,15,191,software
1698,1698,3,13,7,6,202,financial
1699,1699,5,12,4,28,136,pharmaceutical
1700,1700,3,9,3,29,177,pharmaceutical
1701,1701,17,3,3,13,190,financial
1702,1702,13,20,1,8,114,pharmaceutical
1703,1703,6,8,2,4,61,financial
1704,1704,10,2,6,13,133,education
1705,1705,5,17,1,22,117,realestate
1706,1706,7,1,6,17,155,education
1707,1707,17,25,1,12,190,realestate
1708,1708,0,20,0,8,119,realestate
1709,1709,15,2,0,24,184,financial
1710,1710,8,17,4,22,145,pharmaceutical
1711,1711,9,23,7,7,104,retail
1712,1712,1,13,6,0,205,realestate
1713,1713,12,4,2,6,85,software
1714,1714,1,22,2,27,216,retail
1715,1715,18,4,1,11,103,pharmaceutical
1716,1716,5,15,4,18,115,retail
1717,1717,8,9,1,18,111,retail
1718,1718,17,5,2,12,193,financial
1719,1719,19,15,8,27,117,financial
1720,1720,8,0,3,11,161,education
1721,1721,12,24,8,17,90,pharmaceutical
1722,1722,14,20,3,5,182,education
1723,1723,17,20,4,12,187,software
1724,1724,2,2,4,13,199,financial
1725,1725,1,7,9,27,227,education
1726,1726,14,22,9,28,197,education
1727,1727,9,15,3,19,44,pharmaceutical
1728,1728,8,21,6,6,110,realestate
1729,1729,9,5,0,12,43,realestate
1730,1730,6,2,2,14,85,education
1731,1731,9,26,4,14,52,pharmaceutical
1732,1732,5,22,5,11,100,retail
1733,1733,12,28,2,18,87,financial
1734,1734,12,25,3,9,78,financial
1735,1735,14,13,4,4,186,retail
1736,1736,11,21,5,1,92,retail
1737,1737,4,28,3,18,132,realestate
1738,1738,17,24,7,28,196,financial
1739,1739,8,23,8,21,148,financial
1740,1740,18,17,6,27,56,pharmaceutical
1741,1741,2,6,3,16,219,realestate
1742,1742,17,21,8,18,183,realestate
1743,1743,7,21,2,12,144,software
1744,1744,19,13,2,24,87,financial
1745,1745,1,12,9,24,168,software
1746,1746,15,9,9,23,197,education
1747,1747,3,12,6,2,175,software
1748,1748,7,5,2,25,134,education
1749,1749,1,8,6,16,201,education
1750,1750,17,22,3,0,196,financial
1751,1751,16,3,0,11,149,retail
1752,1752,18,15,4,7,68,realestate
1753,1753,6,11,7,1,51,realestate
1754,1754,13,10,6,26,112,software
1755,1755,11,22,8,6,138,pharmaceutical
1756,1756,15,11,2,14,217,pharmaceutical
1757,1757,10,27,3,27,126,pharmaceutical
1758,1758,7,1,6,0,146,retail
1759,1759,8,8,8,18,205,pharmaceutical
1760,1760,17,27,0,25,189,financial
1761,1761,18,12,5,19,65,financial
1762,1762,11,24,0,6,115,software
1763,1763,8,28,4,20,119,pharmaceutical
1764,1764,8,19,5,27,160,software
1765,1765,4,25,3,19,161,retail
1766,1766,11,6,8,17,126,education
1767,1767,16,1,7,11,154,financial
1768,1768,11,21,1,0,140,retail
1769,1769,10,18,1,18,100,software
1770,1770,17,7,0,3,196,education
1771,1771,18,2,3,25,55,software
1772,1772,18,11,5,10,51,education
1773,1773,11,19,0,7,140,software
1774,1774,11,17,6,22,127,retail
1775,1775,4,10,1,7,166,retail
1776,1776,13,14,2,12,97,retail
1777,1777,10,1,6,24,146,retail
1778,1778,4,2,6,5,141,retail
1779,1779,2,7,5,1,212,realestate
1780,1780,11,9,1,5,96,financial
1781,1781,6,6,6,16,51,software
1782,1782,8,15,7,17,154,pharmaceutical
1783,1783,3,15,5,23,195,financial
1784,1784,5,4,4,8,106,financial
1785,1785,17,5,6,10,196,education
1786,1786,4,24,8,26,142,retail
1787,1787,5,25,8,27,101,realestate
1788,1788,2,27,8,22,219,financial
1789,1789,17,20,7,3,200,software
1790,1790,3,1,4,21,198,pharmaceutical
1791,1791,15,10,2,20,191,retail
1792,1792,17,26,2,17,190,retail
1793,1793,12,19,5,19,82,software
1794,1794,13,23,7,21,126,retail
1795,1795,17,28,2,9,194,pharmaceutical
1796,1796,18,21,4,3,99,pharmaceutical
1797,1797,3,8,2,2,191,financial
1798,1798,2,23,0,14,210,software
1799,1799,6,14,4,24,48,retail
1800,1800,14,18,3,24,191,education
1801,1801,3,7,4,4,192,realestate
1802,1802,5,12,3,17,113,education
1803,1803,13,6,5,13,139,education
1804,1804,7,29,4,21,132,financial
1805,1805,0,15,6,19,121,financial
1806,1806,18,4,3,11,83,pharmaceutical
1807,1807,6,0,1,6,49,retail
1808,1808,6,10,4,8,56,financial
1809,1809,19,5,1,26,72,pharmaceutical
1810,1810,5,27,4,10,139,pharmaceutical
1811,1811,12,2,6,27,96,education
1812,1812,13,12,7,5,123,education
1813,1813,15,26,7,3,192,pharmaceutical
1814,1814,13,17,4,19,106,realestate
1815,1815,6,12,2,0,38,financial
1816,1816,1,19,4,8,226,realestate
1817,1817,12,28,6,23,82,software
1818,1818,17,10,0,23,185,education
1819,1819,10,1,0,17,89,retail
1820,1820,9,13,3,3,81,retail
1821,1821,13,0,9,7,90,pharmaceutical
1822,1822,3,9,7,7,213,pharmaceutical
1823,1823,14,8,2,6,188,pharmaceutical
1824,1824,17,24,2,22,185,realestate
1825,1825,15,8,4,21,187,realestate
1826,1826,14,15,5,11,182,software
1827,1827,18,5,2,25,88,education
1828,1828,17,20,0,18,195,software
1829,1829,3,12,7,8,217,financial
1830,1830,2,1,8,25,202,retail
1831,1831,14,25,0,8,190,financial
1832,1832,7,7,4,27,139,software
1833,1833,1,1,7,27,172,software
1834,1834,7,24,4,21,121,retail
1835,1835,10,22,2,3,104,financial
1836,1836,4,2,7,26,159,software
1837,1837,11,0,1,24,125,pharmaceutical
1838,1838,11,14,5,11,138,education
1839,1839,11,6,5,8,118,education
1840,1840,3,15,6,9,208,realestate
1841,1841,11,1,7,9,107,retail
1842,1842,10,3,5,24,103,education
1843,1843,5,6,3,12,135,retail
1844,1844,1,25,5,15,221,pharmaceutical
1845,1845,4,18,4,12,174,software
1846,1846,12,0,1,27,89,realestate
1847,1847,16,8,2,22,162,pharmaceutical
1848,1848,1,15,5,25,232,financial
1849,1849,7,18,8,7,153,realestate
1850,1850,13,13,5,14,146,retail
1851,1851,0,5,7,6,120,realestate
1852,1852,19,3,5,18,102,pharmaceutical
1853,1853,1,23,4,29,180,retail
1854,1854,2,22,4,24,199,retail
1855,1855,18,6,1,26,59,financial
1856,1856,16,11,9,16,159,retail
1857,1857,9,17,2,6,77,pharmaceutical
1858,1858,16,12,4,6,158,pharmaceutical
1859,1859,7,2,0,26,156,retail
1860,1860,4,15,8,3,194,retail
1861,1861,6,27,5,0,78,pharmaceutical
1862,1862,14,21,4,28,187,financial
1863,1863,15,6,7,12,198,pharmaceutical
1864,1864,19,11,4,12,94,software
1865,1865,6,29,2,9,71,software
1866,1866,15,23,9,12,188,financial
1867,1867,0,3,5,20,123,software
1868,1868,15,7,5,25,185,software
1869,1869,18,9,5,20,76,realestate
1870,1870,9,14,6,3,62,software
1871,1871,14,8,3,16,188,pharmaceutical
1872,1872,16,3,5,23,155,software
1873,1873,14,18,9,9,196,retail
1874,1874,3,16,9,3,210,pharmaceutical
1875,1875,5,8,7,7,138,pharmaceutical
1876,1876,19,17,9,8,108,financial
1877,1877,5,6,7,7,100,software
1878,1878,1,17,5,3,204,education
1879,1879,9,4,8,8,70,software
1880,1880,17,4,8,26,189,pharmaceutical
1881,1881,3,25,6,27,213,pharmaceutical
1882,1882,7,3,1,8,138,education
1883,1883,16,1,1,11,153,retail
1884,1884,8,12,3,12,115,pharmaceutical
1885,1885,18,20,2,28,92,education
1886,1886,12,15,1,20,99,pharmaceutical
1887,1887,9,5,8,19,72,education
1888,1888,7,13,7,5,121,pharmaceutical
1889,1889,11,13,5,23,112,financial
1890,1890,4,1,7,13,158,pharmaceutical
1891,1891,2,26,5,15,209,realestate
1892,1892,2,9,7,16,204,realestate
1893,1893,2,5,4,12,203,pharmaceutical
1894,1894,10,10,4,21,114,pharmaceutical
1895,1895,18,24,6,25,69,realestate
1896,1896,17,10,9,25,183,education
1897,1897,2,22,8,8,199,realestate
1898,1898,11,15,4,8,96,retail
1899,1899,12,8,2,11,87,software
1900,1900,3,17,6,18,175,pharmaceutical
1901,1901,15,27,6,26,198,software
1902,1902,17,19,5,18,192,pharmaceutical
1903,1903,7,1,0,6,134,education
1904,1904,12,3,9,6,92,financial
1905,1905,9,22,1,3,65,education
1906,1906,7,12,2,18,135,financial
1907,1907,7,12,8,0,140,retail
1908,1908,7,22,1,25,121,realestate
1909,1909,5,17,6,1,108,software
1910,1910,17,5,3,9,189,education
1911,1911,13,24,3,1,117,realestate
1912,1912,6,21,6,24,79,financial
1913,1913,7,26,4,5,147,retail
1914,1914,14,23,0,16,183,financial
1915,1915,17,4,4,29,200,pharmaceutical
1916,1916,11,25,0,12,130,pharmaceutical
1917,1917,1,20,0,2,188,financial
1918,1918,6,22,7,7,57,education
1919,1919,1,21,7,21,188,realestate
1920,1920,13,19,8,23,116,software
1921,1921,15,16,9,15,194,financial
1922,1922,2,24,4,3,218,pharmaceutical
1923,1923,17,16,5,26,187,realestate
1924,1924,13,10,1,24,140,realestate
1925,1925,16,5,8,23,155,retail
1926,1926,18,12,3,8,66,education
1927,1927,17,15,4,11,201,retail
1928,1928,10,5,2,24,114,education
1929,1929,4,27,8,13,167,retail
1930,1930,1,26,3,14,235,pharmaceutical
1931,1931,6,24,1,2,85,retail
1932,1932,8,21,6,20,189,financial
1933,1933,19,0,2,28,82,pharmaceutical
1934,1934,1,6,5,0,202,financial
1935,1935,15,11,7,28,216,education
1936,1936,4,25,1,21,164,realestate
1937,1937,11,18,0,12,102,retail
1938,1938,19,2,8,11,91,education
1939,1939,12,7,6,25,94,financial
1940,1940,5,29,9,24,117,financial
1941,1941,10,11,9,21,118,pharmaceutical
1942,1942,19,1,7,9,81,realestate
1943,1943,9,0,1,1,64,education
1944,1944,0,23,7,0,120,pharmaceutical
1945,1945,4,12,4,14,162,education
1946,1946,5,17,5,1,107,education
1947,1947,9,0,2,4,98,retail
1948,1948,10,7,2,13,100,education
1949,1949,8,7,2,28,178,retail
1950,1950,6,26,5,20,73,education
1951,1951,9,4,9,17,82,pharmaceutical
1952,1952,19,9,5,9,74,financial
1953,1953,12,29,8,4,99,software
1954,1954,2,22,6,10,201,retail
1955,1955,0,1,6,1,121,financial
1956,1956,12,27,7,14,82,financial
1957,1957,16,28,8,24,146,financial
1958,1958,19,1,2,29,79,retail
1959,1959,17,19,8,20,201,retail
1960,1960,9,4,5,24,61,software
1961,1961,12,14,6,28,103,realestate
1962,1962,11,9,4,3,92,realestate
1963,1963,6,22,4,13,50,education
1964,1964,5,12,1,25,135,realestate
1965,1965,14,14,4,25,191,education
1966,1966,15,7,9,12,206,financial
1967,1967,8,2,4,19,175,pharmaceutical
1968,1968,19,26,3,2,71,software
1969,1969,0,6,7,17,122,pharmaceutical
1970,1970,15,4,3,11,193,software
1971,1971,7,19,3,25,133,financial
1972,1972,2,23,9,6,216,retail
1973,1973,10,6,7,1,141,financial
1974,1974,12,29,4,15,103,realestate
1975,1975,19,6,9,24,106,pharmaceutical
1976,1976,2,13,0,18,219,retail
1977,1977,9,17,0,8,105,pharmaceutical
1978,1978,5,7,1,19,137,retail
1979,1979,5,24,9,28,105,software
1980,1980,12,9,2,11,89,financial
1981,1981,12,7,4,16,96,retail
1982,1982,18,22,6,5,56,realestate
1983,1983,17,10,7,4,191,financial
1984,1984,16,5,0,5,147,education
1985,1985,7,11,0,19,156,education
1986,1986,3,23,9,26,186,retail
1987,1987,5,26,2,21,95,financial
1988,1988,2,2,7,14,212,pharmaceutical
1989,1989,2,0,6,25,206,education
1990,1990,12,24,2,7,107,education
1991,1991,19,20,4,6,103,software
1992,1992,19,26,1,17,115,financial
1993,1993,15,11,9,7,178,financial
1994,1994,7,3,3,28,165,realestate
1995,1995,11,3,6,10,137,education
1996,1996,12,16,2,29,89,financial
1997,1997,1,25,6,23,223,retail
1998,1998,18,9,0,6,95,education
1999,1999,0,14,8,14,123,retail
